{
  "type": "minecraft:crafting_shaped",
  "pattern": [
    " G ",
    "G G",
    " G "
  ],
  "key": {
    "G": {
      "item": "regeneration:gal_ingot"
    }
  },
  "result": {
    "item": "regeneration:rassilon_seal"
  }
}