{
  "parent": "regeneration:critical_period",
  "display": {
    "icon": {
      "item": "regeneration:robes"
    },
    "title": {
      "translate": "advancements.regeneration.title.timelord_trade"
    },
    "description": {
      "translate": "advancements.regeneration.desc.timelord_trade"
    },
    "frame": "task",
    "show_toast": true,
    "announce_to_chat": true,
    "hidden": false,
    "background": "regeneration:textures/gui/roundel.png"
  },
  "criteria": {
    "0": {
      "trigger": "minecraft:timelord_trade"
    }
  },
  "requirements": [
    [
      "0"
    ]
  ]
}